Абаза,52.6516647,90.0885686
Абакан,53.7223325,91.4436721
Абдулино,53.6778906,53.6472483
Абинск,44.8679655,38.1618157
Агидель,55.8999056,53.9220144
Агрыз,56.5232864,52.9943775
Адыгейск,44.878414,39.190289
Азнакаево,54.8598642,53.0745527
Азов,47.1121589,39.4232555
Ак-Довурак,51.178452,90.5985129
Аксай,47.2676314,39.8756872
Алагир,43.0417684,44.2199715
Алапаевск,57.8475571,61.6693817
Алатырь,54.8397989,46.5721997
Алдан,58.6094283,125.3817188
Алейск,52.4922513,82.7793606
Александров,56.391819,38.7111123
Александровск,59.1613221,57.5763459
Александровск-Сахалинский,50.8974378,142.1578559
Алексеевка,50.6299647,38.6880342
Алексин,54.5083349,37.0478067
Алзамай,55.5551233,98.6643699
Алушта,44.6764304,34.4100624
Альметьевск,54.9014619,52.2970467
Амурск,50.2344147,136.8792444
Анадырь,64.7313924,177.5015421
Анапа,44.8950433,37.3163282
Ангарск,52.544879,103.888543
Андреаполь,56.6506724,32.2620163
Анжеро-Судженск,56.0786281,86.0201278
Анива,46.713152,142.5265804
Апатиты,67.5677761,33.4067929
Апрелевка,55.5276918,37.065143
Апшеронск,44.4584006,39.7299824
Арамиль,56.694632,60.8343125
Аргун,43.2916774,45.8723105
Ардатов,54.8465544,46.2411232
Ардон,43.1755152,44.2955775
Арзамас,55.3945814,43.8408141
Аркадак,51.938831,43.4999221
Армавир,45.0012149,41.1324168
Армянск,46.1059307,33.6910012
Арсеньев,44.1622031,133.2696209
Арск,56.0912567,49.877067
Артем,43.3501675,132.1596175
Артемовск,54.3473075,93.4358377
Артемовский,57.3384177,61.8947443
Архангельск,64.5394289,40.5169606
Асбест,57.0052277,61.4581156
Асино,56.9907085,86.1765257
Астрахань,46.3655652,48.0559236
Аткарск,51.8736062,45.0003247
Ахтубинск,48.2752034,46.1906462
Ачинск,56.253907,90.4794397
Аша,54.9906527,57.2783953
Бабаево,59.3892583,35.9377058
Бабушкин,51.7112755,105.8673219
Бавлы,54.4062891,53.2458065
Багратионовск,54.3866518,20.6418091
Байкальск,51.5230393,104.1487532
Баймак,52.5912896,58.3110998
Бакал,54.9406399,58.8051698
Баксан,43.6819137,43.5345036
Балабаново,55.1773714,36.6566951
Балаково,52.0224231,47.7827765
Балахна,56.495036,43.5758423
Балашиха,55.796389,37.938283
Балашов,51.5388697,43.1839757
Балей,51.5823759,116.6379549
Балтийск,54.6513372,19.9140572
Барабинск,55.35146,78.3464506
Барнаул,53.3479968,83.7798064
Барыш,53.6533992,47.1181134
Батайск,47.1383299,39.7507179
Бахчисарай,44.7514769,33.8752176
Бежецк,57.7860089,36.6904983
Белая Калитва,48.1769737,40.8033529
Белая Холуница,58.8415239,50.8460699
Белгород,50.5976472,36.5856652
Белебей,54.1034582,54.1113129
Белев,53.8114179,36.1382247
Белинский,52.9640996,43.4183212
Белово,54.4220968,86.3037373
Белогорск,45.057202,34.5999029
Белогорск,50.9213415,128.4739471
Белозерск,60.0308381,37.7890586
Белокуриха,51.996152,84.9839604
Беломорск,64.5378417,34.7799462
Белоозёрский,55.4595766,38.4389742
Белорецк,53.9676488,58.4100419
Белореченск,44.7651876,39.8781494
Белоусово,55.0956803,36.677629
Белоярский,63.7121099,66.6772226
Белый,55.8339056,32.9389741
Бердск,54.7582156,83.1070605
Березники,59.4079923,56.8039427
Березовский,56.9095924,60.8180907
Березовский,55.6693513,86.2744459
Беслан,43.1937529,44.5338707
Бийск,52.5393864,85.2138453
Бикин,46.8185743,134.2550718
Билибино,68.0584191,166.4388172
Биробиджан,48.7946446,132.9217207
Бирск,55.4155753,55.5582214
Бирюсинск,55.9609167,97.8205348
Бирюч,50.6484585,38.4005083
Благовещенск,55.0499867,55.9553186
Благовещенск,50.290659,127.527198
Благодарный,45.0989782,43.4306455
Бобров,51.0901649,40.0318256
Богданович,56.7764795,62.0463679
Богородицк,53.7701014,38.1225152
Богородск,56.1020828,43.5135442
Боготол,56.2098468,89.5299336
Богучар,49.9352454,40.5590801
Бодайбо,57.8468636,114.1866287
Бокситогорск,59.4734797,33.845688
Болгар,54.974891,49.0303882
Бологое,57.8855767,34.0537771
Болотное,55.6692421,84.3906889
Болохово,54.0820349,37.826724
Болхов,53.4438496,36.0076833
Большой Камень,43.1111742,132.3480082
Бор,56.3565458,44.0646481
Борзя,50.3876058,116.5234779
Борисоглебск,51.3655754,42.1008334
Боровичи,58.3840197,33.9175929
Боровск,55.2130096,36.4926251
Бородино,55.9054121,94.9020967
Братск,56.1513108,101.6340035
Бронницы,55.4255379,38.264145
Брянск,53.2419535,34.3652146
Бугульма,54.5363495,52.7895849
Бугуруслан,53.6523728,52.4326853
Буденновск,44.7816067,44.1650339
Бузулук,52.7881277,52.2624877
Буинск,54.9641538,48.2901209
Буй,58.4733277,41.5306822
Буйнакск,42.8214424,47.1165263
Бутурлиновка,50.8311818,40.5976923
Валдай,57.9823766,33.2369436
Валуйки,50.2111207,38.0998772
Велиж,55.6057916,31.1856206
Великие Луки,56.332208,30.5508641
Великий Новгород,58.5213846,31.2755394
Великий Устюг,60.7603913,46.3054414
Вельск,61.066,42.1032789
Венев,54.3542315,38.2642236
Верещагино,58.0797571,54.6581309
Верея,55.343369,36.185694
Верхнеуральск,53.8760961,59.2169852
Верхний Тагил,57.3763758,59.9517653
Верхний Уфалей,56.0487158,60.2318886
Верхняя Пышма,56.9758903,60.5650383
Верхняя Салда,58.0465803,60.5560164
Верхняя Тура,58.3643685,59.8265235
Верхотурье,58.8622073,60.8103945
Верхоянск,67.5502451,133.390735
Весьегонск,58.6582598,37.2567558
Ветлуга,57.8559204,45.7761957
Видное,55.551725,37.7061984
Вилюйск,63.7517616,121.627284
Вилючинск,52.9302415,158.4057632
Вихоревка,56.1208145,101.1702926
Вичуга,57.2044698,41.9132201
Владивосток,43.1164904,131.8823937
Владикавказ,43.020588,44.6819182
Владимир,56.1280804,40.4084376
Волгоград,48.7070042,44.5170339
Волгодонск,47.5165338,42.1984951
Волгореченск,57.4424559,41.1594201
Волжск,55.8623156,48.3715083
Волжский,48.7978209,44.7462538
Вологда,59.2483905,39.8355662
Володарск,56.2169751,43.1596417
Волоколамск,56.0356499,35.9585112
Волосово,59.4445408,29.4923355
Волхов,59.9005958,32.3520756
Волчанск,59.9351707,60.0798618
Вольск,52.0459865,47.3873595
Воркута,67.4974082,64.061034
Воронеж,51.6593332,39.1969229
Ворсма,55.989943,43.2718859
Воткинск,57.0518149,53.9873096
Всеволожск,60.0191278,30.6456718
Вуктыл,63.8615274,57.3165402
Выборг,60.7130801,28.7328336
Выкса,55.3207727,42.1678834
Высоковск,56.3359513,36.5251837
Высоцк,60.6296236,28.5709314
Вытегра,61.0063465,36.4495137
Вышний Волочек,57.568302,34.5404016
Вяземский,47.5353379,134.7553856
Вязники,56.29773,42.2687398
Вязьма,55.2116983,34.2951663
Вятские Поляны,56.2284817,51.0614855
Гаврилов Посад,56.5586946,40.1228906
Гаврилов-Ям,57.3091058,39.8546444
Гагарин,55.5525228,34.9950502
Гаджиево,69.2491311,33.315341
Гай,51.4649189,58.4436875
Галич,58.3828191,42.3654013
Гатчина,59.565237,30.1282473
Гвардейск,54.6588378,21.0501388
Гдов,58.7432429,27.8264809
Геленджик,44.5630007,38.0790852
Георгиевск,44.1485694,43.4739851
Глазов,58.1359233,52.6635038
Голицыно,55.6190582,36.9856793
Горбатов,56.1307769,43.0626185
Горно-Алтайск,51.9581028,85.9603235
Горнозаводск,58.3742532,58.3231716
Горняк,50.9979622,81.4643358
Городец,56.6449218,43.4723104
Городище,53.2726916,45.7026142
Городовиковск,46.0875083,41.935537
Гороховец,56.2021036,42.6926111
Горячий Ключ,44.6344864,39.1354738
Грайворон,50.4862958,35.6663877
Гремячинск,58.5626082,57.8520572
Грозный,43.3180145,45.698291
Грязи,52.4874097,39.9331142
Грязовец,58.8757553,40.2485362
Губаха,58.8371721,57.554533
Губкин,51.2837123,37.5347759
Губкинский,64.4457594,76.4713274
Гудермес,43.3519142,46.1035645
Гуково,48.0448904,39.9484672
Гулькевичи,45.3605121,40.6918389
Гурьевск,54.770638,20.6039767
Гурьевск,54.2859263,85.9475985
Гусев,54.5915455,22.1942445
Гусиноозерск,51.2865048,106.5230319
Гусь-Хрустальный,55.6198751,40.6579929
Давлеканово,54.2226707,55.0312373
Дагестанские Огни,42.1152296,48.1939354
Далматово,56.262114,62.9387011
Дальнегорск,44.5539457,135.5662716
Дальнереченск,45.9308483,133.7316907
Данилов,58.1860098,40.1795067
Данков,53.2577411,39.1456184
Дегтярск,56.7048206,60.079138
Дедовск,55.8703276,37.1245043
Демидов,55.2682105,31.5062809
Дербент,42.058966,48.2907452
Десногорск,54.146457,33.2833222
Джанкой,45.7092306,34.3883372
Дзержинск,56.2376047,43.4599416
Дзержинский,55.6240869,37.8440276
Дивногорск,55.9576784,92.3800687
Дигора,43.1567628,44.1549483
Димитровград,54.2167926,49.6262585
Дмитриев,52.1268464,35.0739038
Дмитровск,52.5054851,35.1415009
Дно,57.826974,29.9629389
Добрянка,58.469685,56.4130737
Долгопрудный,55.9385999,37.5101021
Долинск,47.3255783,142.7945071
Домодедово,55.4363283,37.7664984
Донецк,48.3350706,39.945891
Донской,53.9678944,38.3371824
Дорогобуж,54.9136959,33.3023162
Дрезна,55.7443143,38.8498479
Дубна,56.741786,37.1757223
Дубовка,49.0554742,44.8270085
Дудинка,69.4031364,86.1907218
Духовщина,55.1950257,32.401252
Дюртюли,55.4848318,54.8524765
Дятьково,53.5958178,34.3551812
Евпатория,45.190629,33.367634
Егорьевск,55.3830113,39.0358317
Ейск,46.71157,38.2763895
Екатеринбург,56.8385216,60.6054911
Елабуга,55.7567107,52.0543794
Елец,52.6152411,38.5289342
Елизово,53.1830375,158.3883548
Ельня,54.5837795,33.1749867
Еманжелинск,54.7554548,61.3243477
Емва,62.5965137,50.8732125
Енисейск,58.4485261,92.1651083
Ермолино,55.1971758,36.5952722
Ершов,51.3508505,48.2762226
Ессентуки,44.0446186,42.8588653
Ефремов,53.1464766,38.0921657
Железноводск,44.1320568,43.0306461
Железногорск,52.3380202,35.3516867
Железногорск,56.2529035,93.532273
Железногорск-Илимский,56.5847888,104.114275
Жердевка,51.8422192,41.4617687
Жигулевск,53.4011981,49.4945176
Жиздра,53.7521926,34.7386592
Жирновск,50.9768814,44.7858202
Жуков,55.0301833,36.7394903
Жуковка,53.5340397,33.7302579
Жуковский,55.599803,38.1224298
Завитинск,50.1064111,129.4391813
Заводоуковск,56.5027463,66.5513613
Заволжск,57.4918141,42.1375625
Заволжье,56.6404286,43.3872492
Задонск,52.4004179,38.9205032
Заинск,55.299053,52.0062972
Закаменск,50.372713,103.286699
Заозерный,55.9617752,94.7091491
Заозерск,69.4003584,32.4501496
Западная Двина,56.2566492,32.0805315
Заполярный,69.4132852,30.7984312
Зарайск,54.762456,38.8850978
Заречный,53.1960836,45.1689907
Заречный,56.8102931,61.3380029
Заринск,53.7063476,84.9315081
Звенигово,55.9738571,48.0170245
Звенигород,55.7297089,36.8554029
Зверево,48.0435487,40.1265822
Зеленогорск,56.1131564,94.5888103
Зеленоградск,54.9600185,20.4753652
Зеленодольск,55.8466651,48.5010954
Зеленокумск,44.4032668,43.8841877
Зерноград,46.8495958,40.312837
Зея,53.7340088,127.265787
Зима,53.920693,102.0491772
Златоуст,55.1714905,59.6725549
Злынка,52.4267015,31.7360399
Змеиногорск,51.1581094,82.1872547
Знаменск,48.5866291,45.7368019
Зубцов,56.1760868,34.5825515
Зуевка,58.4032152,51.1331606
Ивангород,59.3766119,28.2231659
Иваново,56.9993792,40.9728272
Ивантеевка,55.9741665,37.9207539
Ивдель,60.6944496,60.4245069
Игарка,67.4666901,86.5812794
Ижевск,56.852738,53.2114896
Избербаш,42.5650962,47.8710051
Изобильный,45.3684296,41.708702
Иланский,56.2374037,96.067267
Инза,53.8549647,46.3533459
Иннополис,55.7521699,48.7446846
Инсар,53.8770022,44.3696566
Инта,66.0367316,60.1152961
Ипатово,45.7181751,42.8970206
Ирбит,57.6838362,63.057675
Иркутск,52.2864036,104.2807466
Исилькуль,54.9096002,71.2816284
Искитим,54.6267603,83.2951244
Ишим,56.1104858,69.4795776
Ишимбай,53.4545764,56.0438751
Йошкар-Ола,56.6343662,47.8999706
Кадников,59.5037764,40.3441148
Казань,55.7943584,49.1114975
Калач,50.4242134,41.0162014
Калач-на-Дону,48.6889024,43.5306303
Калачинск,55.0598155,74.5653644
Калининград,54.7074702,20.5073241
Калининск,51.4993591,44.4710435
Калтан,53.5210919,87.2771636
Калуга,54.5059848,36.2516245
Калязин,57.2579478,37.7819693
Камбарка,56.2659916,54.193374
Каменка,53.1855463,44.0469717
Каменногорск,60.950855,29.1308372
Каменск-Уральский,56.414962,61.9188674
Каменск-Шахтинский,48.3205326,40.2689583
Камень-на-Оби,53.7913974,81.3545053
Камешково,56.3490152,40.9955183
Камызяк,46.110579,48.07333
Камышин,50.0651529,45.3844202
Камышлов,56.8465034,62.7119766
Канаш,55.507,47.4918273
Кандалакша,67.1567974,32.4143218
Канск,56.2051282,95.7051096
Карабаново,56.3131822,38.7034257
Карабаш,55.4852323,60.2358881
Карабулак,43.3055248,44.9094582
Карасук,53.7343189,78.0422967
Карачаевск,43.7732525,41.9143472
Карачев,53.1296524,34.9888727
Каргат,55.1945666,80.2829495
Каргополь,61.5009724,38.9636966
Карпинск,59.7665925,60.0011703
Карталы,53.0536197,60.6478408
Касимов,54.9373475,41.3913211
Касли,55.8868784,60.7421663
Каспийск,42.8916007,47.6367066
Катав-Ивановск,54.7521438,58.1983648
Катайск,56.290809,62.5800359
Качканар,58.7051762,59.4839155
Кашин,57.360194,37.6119436
Кашира,54.853337,38.1904392
Кедровый,57.561869,79.5677821
Кемерово,55.3910651,86.0467781
Кемь,64.9543539,34.5949263
Керчь,45.3562627,36.4674513
Кизел,59.0512783,57.6471028
Кизилюрт,43.203825,46.8729636
Кизляр,43.8484083,46.7233699
Кимовск,53.9698378,38.5380808
Кимры,56.8733213,37.3556605
Кингисепп,59.3740435,28.6112444
Кинель,53.2210298,50.6343776
Кинешма,57.4425463,42.168914
Киреевск,53.9319555,37.9220351
Киренск,57.7756595,108.1109412
Киржач,56.1486863,38.8635701
Кириллов,59.8591523,38.3748782
Кириши,59.4742862,32.0624947
Киров,54.0790111,34.3076201
Киров,58.6035264,49.6679304
Кировград,57.4299433,60.0624051
Кирово-Чепецк,58.5559424,50.0316848
Кировск,59.8754216,30.981364
Кировск,67.6150424,33.663735
Кирс,59.340056,52.2414437
Кирсанов,52.6506335,42.7286445
Киселевск,54.0059999,86.6366116
Кисловодск,43.9052044,42.7168721
Клинцы,52.7529119,32.233911
Княгинино,55.8205915,45.032337
Ковдор,67.5661417,30.4741941
Ковров,56.3554349,41.3170576
Ковылкино,54.0391072,43.9191539
Когалым,62.2639527,74.4829794
Кодинск,58.6032644,99.1797962
Козельск,54.0347201,35.780768
Козловка,55.8406025,48.2577735
Козьмодемьянск,56.3334036,46.546675
Кола,68.8786028,33.0262299
Кологрив,58.8269323,44.3184927
Коломна,55.102814,38.7531002
Колпашево,58.3114253,82.9025829
Кольчугино,56.3327254,39.391336
Коммунар,59.6215133,30.3934125
Комсомольск,57.0273052,40.3776851
Комсомольск-на-Амуре,50.5498936,137.0079408
Конаково,56.7275204,36.8012716
Кондопога,62.2059817,34.2682122
Кондрово,54.7959473,35.9274842
Константиновск,47.5773717,41.0967445
Копейск,55.116665,61.6179185
Кораблино,53.9246659,40.0227745
Кореновск,45.4641703,39.458949
Коркино,54.8903147,61.4034576
Королёв,55.9161773,37.8545415
Короча,50.8129041,37.1896436
Корсаков,46.6324545,142.799445
Коряжма,61.2885948,47.1003015
Костерево,55.9337222,39.6247398
Костомукша,64.5889398,30.6016832
Кострома,57.768,40.927
Котельники,55.6597925,37.8631156
Котельниково,47.6310259,43.1330872
Котельнич,58.3034832,48.3475597
Котлас,61.2528972,46.633242
Котово,50.3205766,44.8030699
Котовск,52.5924489,41.5101237
Кохма,56.9324606,41.0931657
Красавино,60.9612823,46.4814116
Красноармейск,56.105426,38.140838
Красноармейск,51.023541,45.695044
Красновишерск,60.3901321,57.0535682
Красногорск,55.8317203,37.3295266
Краснодар,45.0401604,38.9759647
Краснозаводск,56.4409979,38.2320307
Краснознаменск,54.9453423,22.4928745
Краснознаменск,55.5978959,37.0393709
Краснокаменск,50.0929703,118.0323936
Краснокамск,58.0822065,55.7479936
Красноперекопск,45.9537576,33.7921939
Краснослободск,54.4248207,43.7845011
Краснослободск,48.7068721,44.5630857
Краснотурьинск,59.7636635,60.1934525
Красноуральск,58.348651,60.0408764
Красноуфимск,56.612387,57.7636637
Красноярск,56.0093879,92.8524806
Красный Кут,50.9598317,46.9712016
Красный Сулин,47.8831311,40.0781298
Красный Холм,58.0571446,37.1126156
Кременки,54.8862447,37.1168701
Кропоткин,45.4333007,40.5727951
Крымск,44.9344404,37.9855795
Кстово,56.1432084,44.1664198
Кубинка,55.5754955,36.6951995
Кувандык,51.4783857,57.3612636
Кувшиново,57.0265168,34.1676009
Кудрово,59.9075226,30.5121008
Кудымкар,59.0167925,54.6572508
Кузнецк,53.1130888,46.605092
Куйбышев,55.4685094,78.3242048
Кукмор,56.1861392,50.8970238
Кулебаки,55.4296181,42.5125538
Кумертау,52.7564939,55.7970197
Кунгур,57.4283296,56.9438656
Купино,54.366055,77.2973368
Курган,55.4443883,65.3161963
Курганинск,44.8877025,40.5913245
Курильск,45.2270954,147.8796323
Курлово,55.452698,40.6124108
Куровское,55.5792277,38.9207723
Курск,51.7303637,36.1925603
Куртамыш,54.9368539,64.4203722
Курчалой,43.2046547,46.0889364
Курчатов,51.6604083,35.6572224
Куса,55.3386053,59.4385778
Кушва,58.2826013,59.7645766
Кызыл,51.7191047,94.4376882
Кыштым,55.7061276,60.5563781
Кяхта,50.346543,106.4533516
Лабинск,44.6354363,40.7245341
Лабытнанги,66.6592841,66.3883009
Лагань,45.3930912,47.3432602
Ладушкин,54.5692156,20.1690153
Лаишево,55.4042867,49.5499838
Лакинск,56.0180587,39.956551
Лангепас,61.2536939,75.1807763
Лахденпохья,61.518881,30.1996116
Лебедянь,53.0156117,39.143536
Лениногорск,54.5967034,52.4431906
Ленинск,48.6936061,45.1992692
Ленинск-Кузнецкий,54.6674492,86.1797324
Ленск,60.7276196,114.9548255
Лермонтов,44.1054107,42.973135
Лесной,58.6348516,59.7981565
Лесозаводск,45.4780092,133.4186199
Лесосибирск,58.221681,92.5037872
Ливны,52.4284558,37.6039506
Ликино-Дулёво,55.7078257,38.9578093
Липецк,52.610249,39.5947883
Липки,53.9417551,37.7020148
Лиски,50.9945626,39.5184909
Лихославль,57.1221304,35.4667605
Лобня,56.0328881,37.4614035
Лодейное Поле,60.7320936,33.5521022
Лосино-Петровский,55.8713214,38.200599
Луга,58.7374031,29.8465776
Луза,60.6290609,47.2612445
Лукоянов,55.0326225,44.4933807
Луховицы,54.9652077,39.0260266
Лысково,56.0262359,45.035771
Лысьва,58.0995875,57.8086825
Лыткарино,55.5778163,37.9033507
Льгов,51.6597148,35.2612491
Любань,59.3493847,31.2484801
Люберцы,55.676499,37.898125
Любим,58.3620228,40.686841
Людиново,53.8700828,34.4385915
Лянтор,61.6392863,72.179409
Магадан,59.5681332,150.8084956
Магас,43.1688611,44.8131207
Магнитогорск,53.4072153,58.9791437
Майкоп,44.6098268,40.1006606
Майский,43.6281516,44.0517314
Макаров,48.6236334,142.7803205
Макарьев,57.8807152,43.8014197
Макушино,55.2153947,67.2451705
Малая Вишера,58.8458379,32.2247401
Малгобек,43.5096646,44.5901963
Малмыж,56.5243844,50.6782739
Малоархангельск,52.4002192,36.5038579
Малоярославец,55.0177123,36.4633603
Мамадыш,55.7150413,51.4129016
Мамоново,54.4646036,19.9453482
Мантурово,58.3265441,44.757494
Мариинск,56.2127383,87.7454924
Мариинский Посад,56.111923,47.7142942
Маркс,51.7133337,46.7400339
Махачкала,42.9849159,47.5047181
Мглин,53.0599771,32.8468129
Мегион,61.0318712,76.1025878
Медвежьегорск,62.9127626,34.4568489
Медногорск,51.4037617,57.583163
Медынь,54.9689785,35.8872168
Межгорье,54.2397689,57.9614547
Междуреченск,53.6865289,88.0702754
Мезень,65.8398078,44.2532273
Меленки,55.3387515,41.6340046
Мелеуз,52.9589532,55.9282838
Менделеевск,55.895169,52.3143347
Мензелинск,55.7270698,53.1003968
Мещовск,54.3191471,35.2816918
Миасс,55.0456457,60.1077572
Микунь,62.3579068,50.0719503
Миллерово,48.9260077,40.3984087
Минеральные Воды,44.2087273,43.138408
Минусинск,53.7104586,91.6872907
Миньяр,55.0709557,57.548478
Мирный,62.7645265,40.3360076
Мирный,62.536232,113.9667728
Михайлов,54.2297402,39.0091481
Михайловка,50.0708719,43.2401512
Михайловск,45.1297323,42.0288443
Михайловск,56.4370039,59.1137316
Мичуринск,52.8912389,40.5104443
Могоча,53.7361398,119.7660867
Можайск,55.5069259,36.024043
Можга,56.4427774,52.2137886
Моздок,43.7471342,44.6569607
Мончегорск,67.9386153,32.9359719
Морозовск,48.3511807,41.8309225
Моршанск,53.4436216,41.8115478
Мосальск,54.4824939,34.9872239
Муравленко,63.7940552,74.4948635
Мураши,59.3955383,48.9638417
Мурино,60.044862,30.4571456
Мурманск,69.007721,33.0685865
Муром,55.5630311,42.0231362
Мценск,53.2788438,36.5749105
Мыски,53.7125695,87.8055646
Мытищи,55.9105782,37.7363579
Мышкин,57.7881684,38.4544224
Набережные Челны,55.7434619,52.3959165
Навашино,55.543811,42.1887089
Наволоки,57.4679066,41.9608002
Надым,65.5377966,72.5182736
Назарово,56.0113799,90.4168775
Назрань,43.2257841,44.7645779
Называевск,55.5689323,71.3503426
Нальчик,43.4845464,43.60713
Нариманов,46.6916565,47.8502476
Нарткала,43.5578075,43.8575925
Нарьян-Мар,67.6379672,53.0069565
Находка,42.8239372,132.8927361
Невель,56.0201973,29.9239983
Невельск,46.6526899,141.8630725
Невинномысск,44.6226031,41.9476723
Невьянск,57.49131,60.2183429
Нелидово,56.2232566,32.7767459
Неман,55.0316524,22.0324064
Нерехта,57.4543369,40.5723598
Нерчинск,51.9594977,116.5852383
Нерюнгри,56.6599953,124.7202403
Нестеров,54.6313814,22.5713736
Нефтегорск,52.7972914,51.1637392
Нефтекамск,56.088377,54.2483061
Нефтекумск,44.7544552,44.9865347
Нефтеюганск,61.0882676,72.6164079
Нея,58.2943349,43.8780948
Нижневартовск,60.9396698,76.5696184
Нижнекамск,55.6313609,51.8144669
Нижнеудинск,54.8968931,99.0314056
Нижние Серги,56.6544959,59.2953035
Нижний Ломов,53.5300905,43.6730217
Нижний Новгород,56.3240627,44.0053913
Нижний Тагил,57.910126,59.9812853
Нижняя Салда,58.0748272,60.7025418
Нижняя Тура,58.6309267,59.8520344
Николаевск,50.0165306,45.4731658
Николаевск-на-Амуре,53.1460657,140.7111367
Никольск,59.5351837,45.4576137
Никольск,53.7137496,46.0799857
Никольское,59.7043309,30.7874571
Новая Ладога,60.1100135,32.3141203
Новая Ляля,59.0538977,60.5944825
Новоалександровск,45.4932733,41.2153996
Новоалтайск,53.4119759,83.9311069
Новоаннинский,50.5296067,42.6666439
Нововоронеж,51.3091524,39.2162843
Новодвинск,64.4136851,40.8208143
Новозыбков,52.537173,31.9357991
Новокубанск,45.1038699,41.0475175
Новокузнецк,53.794315,87.2142745
Новокуйбышевск,53.0994565,49.9477382
Новомичуринск,54.0376572,39.74654
Новомосковск,54.0109075,38.2914024
Новопавловск,43.9617097,43.6342865
Новоржев,57.029807,29.3433083
Новороссийск,44.7235026,37.7686135
Новосибирск,55.028191,82.9211489
Новосиль,52.97454,37.0437146
Новосокольники,56.3408431,30.1527573
Новотроицк,51.1964202,58.3018192
Новоузенск,50.455199,48.1413153
Новоульяновск,54.1447956,48.3910789
Новоуральск,57.2472567,60.0956714
Новохоперск,51.0952211,41.6173404
Новочебоксарск,56.1094977,47.4791113
Новочеркасск,47.411919,40.1042098
Новошахтинск,47.757773,39.9363697
Новый Оскол,50.7633747,37.8775484
Новый Уренгой,66.0839433,76.6809681
Нолинск,57.5597284,49.93575
Норильск,69.3489978,88.2009846
Ноябрьск,63.2018039,75.4510581
Нурлат,54.4281461,50.8049337
Нытва,57.9336725,55.3356084
Нюрба,63.2828955,118.3242437
Нягань,62.1454701,65.3946047
Нязепетровск,56.0536895,59.6097202
Няндома,61.6654674,40.2062947
Облучье,49.0189345,131.0540102
Обнинск,55.0943144,36.6121639
Обоянь,51.2119324,36.2755133
Обь,54.9945576,82.6937181
Озерск,54.4084705,22.0134438
Озерск,55.763154,60.7076198
Озёры,54.8541006,38.5599196
Октябрьск,53.1640488,48.670762
Октябрьский,54.4815311,53.4655972
Окуловка,58.3910296,33.2901557
Олекминск,60.3758006,120.4060878
Оленегорск,68.1422058,33.2669407
Олонец,60.9794025,32.9725519
Омск,54.9848566,73.3674517
Омутнинск,58.6698913,52.1894564
Онега,63.9162928,38.0805031
Опочка,56.710725,28.6717519
Орёл,52.9671298,36.0696427
Оренбург,51.7875092,55.1018828
Орлов,58.5389776,48.8927723
Орск,51.2294282,58.4752777
Оса,57.2889515,55.4688668
Осинники,53.5988055,87.3371272
Осташков,57.1456744,33.1115372
Остров,57.3451528,28.3437593
Островной,68.0510344,39.5077846
Острогожск,50.8677905,39.0407746
Отрадное,59.7726848,30.7988557
Отрадный,53.3800848,51.3438605
Оха,53.5867839,142.9412411
Оханск,57.7180034,55.3872469
Очер,57.8852686,54.7161091
Павлово,55.9797564,43.0995042
Павловск,50.453455,40.136874
Павловский Посад,55.7807244,38.6596983
Палласовка,50.0500944,46.8804277
Партизанск,43.1280578,133.1264567
Певек,69.7016661,170.2999022
Пенза,53.1753314,45.0348625
Первомайск,54.8675792,43.8013992
Первоуральск,56.9080085,59.942926
Перевоз,55.5967718,44.5448369
Пересвет,56.4158326,38.1733534
Переславль-Залесский,56.7360544,38.8543617
Пермь,58.0102583,56.2342034
Пестово,58.5973723,35.8143898
Петров Вал,50.1380557,45.20914
Петровск,52.3094237,45.3851877
Петровск-Забайкальский,51.2748592,108.846681
Петрозаводск,61.7891264,34.3596434
Петропавловск-Камчатский,53.036908,158.6559254
Петухово,55.0650077,67.8873408
Петушки,55.9298134,39.4508075
Печора,65.148584,57.2239777
Печоры,57.8145817,27.622259
Пикалево,59.5132022,34.1772776
Пионерский,54.9516574,20.2277424
Питкяранта,61.5757191,31.4640557
Плавск,53.7096415,37.2862352
Пласт,54.3692764,60.8151894
Плес,57.4606031,41.5122672
Поворино,51.1954419,42.2472726
Подольск,55.4389322,37.5703482
Подпорожье,60.9127549,34.1567664
Покачи,61.7422169,75.5941517
Покров,55.9166398,39.1734526
Покровск,61.4843503,129.1482392
Полевской,56.4956952,60.2365298
Полесск,54.8625126,21.0998067
Полысаево,54.6055,86.2809208
Полярные Зори,67.373084,32.4975636
Полярный,69.1989583,33.4508591
Поронайск,49.238866,143.1008333
Порхов,57.7765219,29.5436626
Похвистнево,53.6498299,52.1235156
Почеп,52.9154851,33.4744058
Починок,54.406244,32.4398039
Пошехонье,58.5062879,39.1208434
Правдинск,54.4430986,21.0085269
Приволжск,57.3805743,41.2808565
Приморск,54.7311437,19.9981926
Приморск,60.3660209,28.6135772
Приморско-Ахтарск,46.0515432,38.1704875
Приозерск,61.0330896,30.1587851
Прокопьевск,53.8604265,86.7183577
Пролетарск,46.7038963,41.727594
Протвино,54.8705984,37.2182749
Прохладный,43.7589602,44.0102409
Псков,57.8194415,28.3317198
Пугачев,52.0159921,48.7972223
Пудож,61.8058821,36.5329941
Пустошка,56.3374813,29.3668055
Пучеж,56.9820688,43.1683321
Пушкино,56.0103638,37.8471403
Пущино,54.8324412,37.6210346
Пыталово,57.0637952,27.9236214
Пыть-Ях,60.7585833,72.8365617
Пятигорск,44.041091,43.0661553
Радужный,55.9960277,40.3321855
Радужный,62.1342888,77.4584094
Райчихинск,49.7941615,129.4112492
Раменское,55.5495132,38.2728914
Рассказово,52.6538833,41.874285
Ревда,56.7986319,59.9071591
Реж,57.3717477,61.3833842
Реутов,55.7582621,37.8618553
Ржев,56.262881,34.3291002
Родники,57.1025975,41.7298834
Рославль,53.9449558,32.8480258
Россошь,50.1701949,39.6226965
Ростов,57.2051315,39.4378622
Ростов-на-Дону,47.2224566,39.718803
Рошаль,55.6632776,39.8656147
Ртищево,52.2616271,43.7842248
Рубцовск,51.5012067,81.2078695
Рудня,54.9441093,31.0794806
Руза,55.7014744,36.1959206
Рузаевка,54.0581967,44.9490466
Рыбинск,58.0485495,38.8584119
Рыбное,54.7256164,39.5134398
Рыльск,51.5681314,34.6802597
Ряжск,53.7067584,40.0522274
Рязань,54.6254445,39.7358609
Саки,45.1341997,33.6033383
Салават,53.3616974,55.9245224
Салаир,54.2351735,85.8030733
Салехард,66.5492077,66.6085318
Сальск,46.4752095,41.5410415
Самара,53.1950306,50.1069518
Саранск,54.1809332,45.1862632
Сарапул,56.4615767,53.8037657
Саратов,51.533557,46.034257
Саров,54.9228268,43.3448089
Сасово,54.3508885,41.9117422
Сатка,55.0405288,59.0288975
Сафоново,55.1199661,33.2336988
Саяногорск,53.1008083,91.4122454
Саянск,54.1107238,102.18015
Светлогорск,54.9439286,20.1514295
Светлоград,45.328659,42.8565714
Светлый,54.6772897,20.1357595
Светогорск,61.1111282,28.8725865
Свирск,53.0842668,103.3364093
Свободный,51.3614103,128.1219729
Себеж,56.2908554,28.4724326
Северо-Курильск,50.6730577,156.1282211
Северобайкальск,55.635614,109.3361505
Северодвинск,64.5625385,39.8180934
Североморск,69.0766801,33.4177759
Североуральск,60.1533109,59.9525245
Северск,56.6031285,84.8809926
Севск,52.1483358,34.4918415
Сегежа,63.7437572,34.3126982
Сельцо,53.3739884,34.1059172
Семенов,56.7889794,44.4902885
Семикаракорск,47.5177337,40.8114167
Семилуки,51.6951644,39.0190454
Сенгилей,53.958964,48.7768269
Серафимович,49.5663183,42.7360402
Сергач,55.5201515,45.4813231
Сердобск,52.4697595,44.2122414
Серов,59.6047724,60.5753882
Серпухов,54.9226466,37.4033859
Сертолово,60.1446932,30.2095918
Сибай,52.7204651,58.6663783
Сим,54.9907827,57.6900155
Симферополь,44.9482948,34.1001151
Сковородино,53.9871095,123.9437205
Скопин,53.823543,39.5492421
Славгород,52.999463,78.6459232
Славск,55.0449714,21.6742367
Славянск-на-Кубани,45.2603626,38.1259774
Сланцы,59.1178185,28.0881475
Слободской,58.7311574,50.1669249
Слюдянка,51.6563983,103.7187545
Смоленск,54.782635,32.045251
Снежинск,56.0851495,60.7324914
Снежногорск,69.1921409,33.2383502
Собинка,55.9939169,40.0179653
Советск,55.0809336,21.8886106
Советск,53.9338874,37.6316141
Советск,57.584196,48.9590272
Советская Гавань,48.9664966,140.285174
Советский,61.3706913,63.5667222
Сокол,59.4758605,40.1114187
Солигалич,59.0784867,42.2878423
Соликамск,59.6482998,56.771009
Солнечногорск,56.185102,36.977631
Соль-Илецк,51.1633736,54.9896726
Сольвычегодск,61.3319616,46.920441
Сольцы,58.1201281,30.309351
Сорочинск,52.426685,53.1542745
Сорск,54.0002888,90.2594446
Сортавала,61.703367,30.6916998
Сосенский,54.0566016,35.9621646
Сосновка,56.2532741,51.2833642
Сосновоборск,56.1202647,93.3354121
Сосновый Бор,59.8772884,29.1291619
Сосногорск,63.5989841,53.876293
Сочи,43.5854551,39.7231548
Спас-Деменск,54.409922,34.0189631
Спас-Клепики,55.1291721,40.1745338
Спасск,53.9271974,43.1859073
Спасск-Дальний,44.5901175,132.8157288
Спасск-Рязанский,54.4070719,40.3763426
Среднеколымск,67.4582218,153.7069425
Среднеуральск,56.9918901,60.4771018
Сретенск,52.2461454,117.7117842
Ставрополь,45.044516,41.9689655
Старая Купавна,55.810648,38.175624
Старая Русса,57.990737,31.3554897
Старица,56.514876,34.9336396
Стародуб,52.5852257,32.760403
Старый Крым,45.029058,35.0901474
Старый Оскол,51.2967101,37.8350182
Стерлитамак,53.6300864,55.9317089
Стрежевой,60.732895,77.604122
Строитель,50.7845099,36.4887648
Струнино,56.3749967,38.5839667
Ступино,54.886274,38.078228
Суворов,54.1343585,36.4807419
Судак,44.8504679,34.9762034
Суджа,51.1918927,35.2720915
Судогда,55.9498056,40.8562939
Суздаль,56.4274441,40.4525692
Сунжа,43.3204196,45.0476331
Суоярви,62.0787293,32.3499386
Сураж,53.0170888,32.3938878
Сургут,61.2541083,73.3961587
Суровикино,48.618917,42.8541163
Сурск,53.0761357,45.6910796
Сусуман,62.7805882,148.1540281
Сухиничи,54.097296,35.3443568
Сухой Лог,56.9076193,62.0358093
Сызрань,53.1558674,48.4744629
Сыктывкар,61.6686617,50.8358151
Сысерть,56.5005715,60.8190003
Сычевка,55.8308821,34.2778793
Сясьстрой,60.1401739,32.5601559
Тавда,58.0434672,65.274217
Таганрог,47.2094917,38.9350989
Тайга,56.0622131,85.6207182
Тайшет,55.9405334,98.0030145
Талдом,56.7308564,37.5276003
Талица,57.0122687,63.7320757
Тамбов,52.7213154,41.452264
Тара,56.9160511,74.3649194
Тарко-Сале,64.9118803,77.7610236
Таруса,54.7236477,37.1671
Татарск,55.2146167,75.9739914
Таштагол,52.759313,87.8476546
Тверь,56.8586059,35.9116761
Теберда,43.4437731,41.7415142
Тейково,56.8542719,40.5353874
Темников,54.6310583,43.2161099
Темрюк,45.2610949,37.4454412
Терек,43.4839358,44.1402161
Тетюши,54.936516,48.8314533
Тимашевск,45.615923,38.9351837
Тихвин,59.6272904,33.5072731
Тихорецк,45.8546345,40.1260267
Тобольск,58.2017299,68.2538558
Тогучин,55.2251631,84.4104118
Тольятти,53.5205348,49.3894028
Томари,47.7620108,142.0615837
Томмот,58.9586859,126.2875462
Томск,56.4845804,84.9481582
Топки,55.2764707,85.6152619
Торжок,57.04133,34.9602344
Торопец,56.5012188,31.6355466
Тосно,59.5407098,30.877812
Тотьма,59.9734998,42.7589506
Трехгорный,54.8178249,58.4464194
Троицк,54.0843745,61.5586831
Трубчевск,52.5791734,33.7660547
Туапсе,44.1105335,39.0824904
Туймазы,54.5999224,53.6950623
Тула,54.1920559,37.6153842
Тулун,54.557162,100.5780603
Туран,52.1449619,93.9173396
Туринск,58.0393524,63.6981973
Тутаев,57.8674993,39.5369627
Тында,55.1546441,124.7468904
Тырныауз,43.3981585,42.9213582
Тюкалинск,55.8703415,72.1954747
Тюмень,57.1529744,65.5344099
Уварово,51.9767841,42.2529799
Углегорск,49.0815774,142.0692639
Углич,57.5224249,38.3020044
Удачный,66.4071765,112.3061555
Удомля,57.8787314,35.0167348
Ужур,55.3141969,89.8333918
Узловая,53.9730452,38.1763201
Улан-Удэ,51.8335853,107.5842223
Ульяновск,54.3079415,48.3748487
Унеча,52.8461199,32.6757629
Урай,60.1296954,64.8038508
Урень,57.4612572,45.7833293
Уржум,57.1097477,50.0058097
Урюпинск,50.7903789,42.0288513
Усинск,65.994147,57.5569423
Усмань,52.0442648,39.726401
Усолье,59.4277573,56.6837872
Усолье-Сибирское,52.7565808,103.6388109
Уссурийск,43.7971818,131.9518229
Усть-Джегута,44.0838442,41.9711046
Усть-Илимск,57.9430504,102.7415734
Усть-Катав,54.9260812,58.152805
Усть-Кут,56.7928178,105.7757343
Усть-Лабинск,45.2227359,39.6929577
Устюжна,58.8383117,36.4425478
Уфа,54.734944,55.9578468
Ухта,63.5565514,53.7014239
Учалы,54.3067375,59.4125461
Уяр,55.8131263,94.3282601
Фатеж,52.0917728,35.8538706
Феодосия,45.0318393,35.3824259
Фокино,53.4554145,34.4159238
Фокино,42.9706317,132.4110196
Фролово,49.7649148,43.6648641
Фрязино,55.9590588,38.0410235
Фурманов,57.2539276,41.1054432
Хабаровск,48.4647258,135.0598942
Хадыженск,44.4122963,39.5320258
Ханты-Мансийск,61.0023984,69.0184798
Харабали,47.408999,47.2525345
Харовск,59.9479423,40.2000298
Хасавюрт,43.2504665,46.5851292
Хвалынск,52.4951572,48.1045771
Хилок,51.3634856,110.4590898
Химки,55.888657,37.4303702
Холм,57.145108,31.1787499
Холмск,47.0408423,142.041688
Хотьково,56.2516982,37.9396017
Цивильск,55.8650213,47.4729349
Цимлянск,47.6477448,42.0931505
Циолковский,51.762481,128.1219846
Чадан,51.2844502,91.5788609
Чайковский,56.7781501,54.1477965
Чапаевск,52.928961,49.8673269
Чаплыгин,53.24048,39.9670973
Чебаркуль,54.9818567,60.3773121
Чебоксары,56.1438298,47.2489782
Чегем,43.5671525,43.5865792
Чекалин,54.0984438,36.2474142
Челябинск,55.1602624,61.4008078
Чердынь,60.4011933,56.4799933
Черемхово,53.1369095,103.0901268
Черепаново,54.2206476,83.3724521
Череповец,59.1269212,37.9090497
Черкесск,44.2269425,42.0466704
Чермоз,58.7842834,56.1507138
Черноголовка,56.010005,38.379245
Черногорск,53.8259342,91.3260229
Чернушка,56.5160768,56.0763049
Черняховск,54.6244751,21.7969062
Чехов,55.1508011,37.4533252
Чистополь,55.3699139,50.6285784
Чита,52.0340142,113.4994
Чкаловск,56.7651262,43.242077
Чудово,59.1248394,31.6866241
Чулым,55.0906867,80.9592508
Чусовой,58.2974596,57.8193615
Чухлома,58.753421,42.6884958
Шагонар,51.5346393,92.9199675
Шадринск,56.0870344,63.6297182
Шали,43.1488691,45.9009629
Шарыпово,55.5389739,89.1801044
Шарья,58.3760542,45.4062414
Шахты,47.7085287,40.2159846
Шахунья,57.6764293,46.6129009
Шацк,54.0287312,41.7181803
Шебекино,50.4004883,36.8877889
Шелехов,52.2102538,104.0973294
Шенкурск,62.1057272,42.8996973
Шилка,51.8497035,116.0334461
Шимановск,52.0051886,127.7005458
Шиханы,52.1147391,47.2023118
Шлиссельбург,59.9443714,31.0333365
Шумерля,55.4962415,46.4182681
Шумиха,55.2280246,63.2901272
Шуя,56.8560234,41.3800939
Щекино,54.0020652,37.5176288
Щелкино,45.4288991,35.825165
Щёлково,55.9233801,37.9783707
Щигры,51.8786014,36.8910945
Щучье,55.2087637,62.7478548
Электрогорск,55.8780241,38.7806752
Электросталь,55.7847291,38.4447045
Электроугли,55.7170877,38.2192563
Элиста,46.3083344,44.2702088
Энгельс,51.4854003,46.126722
Эртиль,51.830932,40.8074182
Югорск,61.3123568,63.3365484
Южа,56.5926877,42.0458099
Южно-Сахалинск,46.9591631,142.737976
Южно-Сухокумск,44.6602467,45.6499523
Южноуральск,54.448927,61.2581158
Юрга,55.7202694,84.8886399
Юрьев-Польский,56.4937757,39.6680539
Юрьевец,57.3177781,43.1110401
Юрюзань,54.854662,58.4226698
Юхнов,54.7446445,35.2424346
Ядрин,55.9406974,46.2020896
Якутск,62.0281405,129.7325887
Ялта,44.4164605,34.0444797
Ялта,44.4953612,34.166308
Ялуторовск,56.6547289,66.3122992
Янаул,56.2650146,54.929907
Яранск,57.3040326,47.8478737
Яровое,52.9252146,78.5729775
Ярославль,57.6215477,39.8977411
Ярцево,55.0564732,32.6902302
Ясногорск,54.4795484,37.6896048
Ясный,51.036838,59.874344
Яхрома,56.2890516,37.4831799
Москва,55.7540471,37.620405
Санкт-Петербург,59.9391313,30.3159004
Севастополь,44.6167013,33.525355
